{
    "$schema": "http://bigcontent.io/cms/schema/v1/schema#",
    "id": "https://bitbucket.org/lkbennett/amplience-dynamic-content/raw/master/title-copy.json",
    "allOf": [
        {
            "$ref": "http://bigcontent.io/cms/schema/v1/core#/definitions/content"
        }
    ],
    "title": "Title & Copy",
    "description": "title and copy",
    "type": "object",
    "properties": {
        "Title": {
            "type": "string",
            "title": "Title",
            "description": "",
            "format": "markdown"
        },
        "Paragraph": {
            "type": "string",
            "title": "Paragraph",
            "description": "",
            "format": "markdown"
        },
        "_title": {
            "type": "string",
            "title": "Title",
            "minLength": 0,
            "maxLength": 150
        }
    },
    "propertyOrder": [
        "_title",
        "Title",
        "Paragraph"
    ]
}