{
    "$schema": "http://bigcontent.io/cms/schema/v1/schema#",
    "id": "https://bitbucket.org/lkbennett/amplience-dynamic-content/raw/master/lib/call-to-action.json",
    "title": "Call To Action",
    "description": "Call to action",
    "type": "object",
    "properties": {
        "Value": {
            "type": "string",
            "title": "Value",
            "description": "Text for call to action"
        },
        "URL": {
            "type": "string",
            "format": "uri",
            "title": "URL",
            "description": ""
        }
    },
    "propertyOrder": [
        "Value",
        "URL"
    ]
}