{
    "$schema": "http://bigcontent.io/cms/schema/v1/schema#",
    "id": "https://bitbucket.org/lkbennett/amplience-dynamic-content/raw/master/lib/title-copy.json",
    "title": "Title & Copy",
    "description": "title and copy",
    "type": "object",
    "properties": {
        "Title": {
            "type": "string",
            "title": "Title",
            "description": "",
            "format": "markdown"
        },
        "Paragraph": {
            "type": "string",
            "title": "Paragraph",
            "description": "",
            "format": "markdown"
        }
    },
    "propertyOrder": [
        "Title",
        "Paragraph"
    ]
}